{
  "project_info": {
    "project_number": "7325646967",
    "firebase_url": "https://areebacomputershop-c6090.firebaseio.com",
    "project_id": "areebacomputershop-c6090",
    "storage_bucket": "areebacomputershop-c6090.appspot.com"
  },
  "client": [
    {
      "client_info": {
        "mobilesdk_app_id": "1:7325646967:android:64231b5d7b16f3f7",
        "android_client_info": {
          "package_name": "com.gameon.areebacomputershop_nativeandroid"
        }
      },
      "oauth_client": [
        {
          "client_id": "7325646967-atscal00lrct7lajmor61hg8brmmou3g.apps.googleusercontent.com",
          "client_type": 1,
          "android_info": {
            "package_name": "com.gameon.areebacomputershop_nativeandroid",
            "certificate_hash": "3961f51205a7978172f6c0df80a50324a7b90576"
          }
        },
        {
          "client_id": "7325646967-c8tr1rsi7odmqdgv1qetdheod54m3qn8.apps.googleusercontent.com",
          "client_type": 3
        }
      ],
      "api_key": [
        {
          "current_key": "AIzaSyD1igvcmXIruY-5el7IypMMzHIIDr1hCxM"
        }
      ],
      "services": {
        "analytics_service": {
          "status": 1
        },
        "appinvite_service": {
          "status": 2,
          "other_platform_oauth_client": [
            {
              "client_id": "7325646967-c8tr1rsi7odmqdgv1qetdheod54m3qn8.apps.googleusercontent.com",
              "client_type": 3
            }
          ]
        },
        "ads_service": {
          "status": 2
        }
      }
    }
  ],
  "configuration_version": "1"
}